<?xml version="1.0" encoding="utf-8"?>
<!-- Generator: Adobe Illustrator 21.1.0, SVG Export Plug-In . SVG Version: 6.00 Build 0)  -->
<svg version="1.1" id="Camada_1" xmlns="http://www.w3.org/2000/svg" xmlns:xlink="http://www.w3.org/1999/xlink" x="0px" y="0px"
	 viewBox="0 0 66 61" style="enable-background:new 0 0 66 61;" xml:space="preserve">
<style type="text/css">
	.st0{fill:#FFFFFF;}
	.st1{fill:#C5D9EF;}
	.st2{fill:#002A76;}
</style>
<title>014_167_store_shop_cashier_manager_buy_seller_employee</title>
<desc>Created with Sketch.</desc>
<g id="operador">
	<g id="omni_consultar_01" transform="translate(-44.000000, -495.000000)">
		<g id="Group" transform="translate(20.000000, 465.000000)">
			
				<g id="_x30_14_x5F_167_x5F_store_x5F_shop_x5F_cashier_x5F_manager_x5F_buy_x5F_seller_x5F_employee" transform="translate(24.000000, 30.000000)">
				<path id="Shape" class="st0" d="M44.7,23.1c0.3,3.9,0.3,8-0.8,10.8h-4.6c0.6-3,0.9-6,0.7-9l-0.8-8.3
					C43.3,17.7,44.5,20.1,44.7,23.1z"/>
				<path id="Shape_1_" class="st0" d="M27.1,16.5l-1,8.4c-0.1,3,0.1,6,0.7,8.9l-0.4,0.1h-4.1c-1.1-2.8-1.2-7.1-0.9-10.8
					C21.6,20.2,22.8,17.7,27.1,16.5z"/>
				<path id="Shape_2_" class="st0" d="M39.1,16.6l0.8,8.3H26.1l1-8.4c0.6-0.2,1.2-0.3,1.8-0.4v1.2c0,1.6,1.2,2.9,2.8,3H33h1.3
					c1.6-0.1,2.8-1.4,2.8-3v-1.2C37.8,16.3,38.4,16.4,39.1,16.6L39.1,16.6z"/>
				<path id="Shape_3_" class="st0" d="M37.1,16.2v1.2c0,1.6-1.2,2.9-2.8,3H33h-1.3c-1.6-0.1-2.8-1.4-2.8-3v-1.2
					c0.5-0.1,1.1-0.2,1.7-0.2c0.5,0.5,1.2,0.8,1.9,0.9c0.2-0.1,0.4-0.1,0.6-0.1c0.2,0,0.4,0,0.6,0.1c0.6-0.2,1.2-0.5,1.8-0.9
					C36,16,36.6,16.1,37.1,16.2z"/>
				<path id="Shape_4_" class="st0" d="M32.2,7.3c2.3,0.2,6.5-1.4,6.2,0.5l0,0c-0.1,0.1-0.1,0.3-0.2,0.4c0,0-0.3-0.2-0.3,0.1
					c0.2,0.2,0.6,0.5,0.6,0.9c0,0.6-0.2,1.9-0.9,2.3c-0.2,1.3-0.6,2.5-1.1,3.7c-0.3,0.3-0.6,0.6-1,0.8c-0.5,0.4-1.1,0.7-1.8,0.9
					c-0.2-0.1-0.4-0.1-0.6-0.1c-0.2,0-0.4,0-0.6,0.1c-0.7-0.1-1.3-0.4-1.9-0.9c-0.3-0.2-0.7-0.5-1-0.8c-0.6-1.2-0.9-2.4-1.1-3.7
					c-0.8-0.4-0.9-1.7-0.9-2.4c0-0.4,0.4-0.7,0.6-0.9c-0.1-0.2-0.2-0.4-0.3-0.6l0,0c0-1.1,1.9-1.7,2.4-1.7C30.1,6.6,31,7.2,32.2,7.3
					z"/>
				<path id="Shape_5_" class="st1" d="M38.6,6.9c0,0.3-0.1,0.6-0.2,0.9l0,0c0.3-1.9-3.8-0.3-6.2-0.5c-1.2-0.1-2.1-0.7-2-1.3
					c-0.5,0-2.5,0.6-2.4,1.7l0,0c-0.1-0.2-0.3-0.3-0.3-0.5c-0.6-2.4,0.8-3.8,2.7-4.7c0.4-0.2,0.8-0.3,1,0.5c0.6-1.9,3.6-0.9,4.4-0.6
					C37.6,3,38.8,4.9,38.6,6.9L38.6,6.9z"/>
				<path id="Shape_6_" class="st2" d="M26.4,34.9h-4.1c-0.4,0-0.8-0.2-0.9-0.6c-1.3-3.2-1.2-7.8-1-11.2c0.3-4,2.4-6.4,6.5-7.5
					c0.6-0.2,1.3-0.3,1.9-0.4c0.5-0.1,1.1-0.1,1.8-0.2c0.3,0,0.6,0.1,0.8,0.3c0.2,0.2,0.3,0.5,0.3,0.7c0,0.6-0.4,1-1,1l0,0
					c-0.5,0-1.1,0.1-1.6,0.2c-0.6,0.1-1.1,0.2-1.7,0.3c-4.1,1.1-4.9,3.5-5,5.7c-0.3,3.2-0.1,6.5,0.6,9.7h3.4c0.6,0,1,0.4,1,1
					C27.4,34.5,27,34.9,26.4,34.9L26.4,34.9z"/>
				<path id="Shape_7_" class="st2" d="M43.9,34.9h-4.1c-0.6,0-1-0.4-1-1c0-0.6,0.4-1,1-1h3.4c0.6-2.1,0.8-5.3,0.5-9.7
					c-0.2-3.2-1.7-4.8-4.8-5.7c-0.6-0.2-1.2-0.3-1.8-0.4c-0.5-0.1-1-0.1-1.6-0.2c-0.5,0-0.9-0.5-0.9-1c0-0.6,0.4-1,1-1
					c0.7,0,1.3,0.1,1.9,0.2c0.7,0.1,1.4,0.2,2.1,0.4c4,1.1,6,3.5,6.3,7.5c0.4,5.2,0.1,8.8-0.9,11.2C44.7,34.7,44.3,34.9,43.9,34.9z"
					/>
				<path id="Shape_8_" class="st2" d="M33,21.4h-1.3c-2.1-0.1-3.8-1.9-3.8-4v-1.2c0-0.6,0.4-1,1-1c0.6,0,1,0.4,1,1v1.2
					c0,1.1,0.8,1.9,1.9,2h2.5c1.1-0.1,1.9-0.9,1.9-2v-1.2c0-0.6,0.4-1,1-1s1,0.4,1,1v1.2c0,2.1-1.7,3.9-3.8,4
					C34,21.4,33.5,21.4,33,21.4z"/>
				<path id="Shape_9_" class="st2" d="M33.7,17.9c-0.1,0-0.3,0-0.4-0.1c-0.1,0-0.2,0-0.3,0c-0.1,0.1-0.3,0.1-0.4,0.1
					c-0.9-0.1-1.8-0.5-2.5-1.1c-0.4-0.3-0.7-0.6-1.1-0.9c-0.1-0.1-0.2-0.2-0.2-0.3c-0.5-1.2-0.9-2.4-1.2-3.6c-0.7-0.8-1-1.8-1-2.9
					c0-0.4,0.1-0.7,0.3-1c-0.2-0.2-0.3-0.4-0.4-0.7c-0.4-1.8-0.2-4.2,3.3-5.8c0.4-0.2,0.9-0.3,1.4-0.1c0.1-0.1,0.3-0.2,0.4-0.3
					c1-0.5,2.5-0.4,4.3,0.2c2.4,0.7,3.9,3.1,3.6,5.5c0,0.4-0.1,0.8-0.3,1.2l-0.1,0.1c0.1,0.3,0.2,0.5,0.2,0.8c0,1.1-0.3,2.1-1,2.9
					c-0.2,1.2-0.6,2.4-1.2,3.6c0,0.1-0.1,0.2-0.2,0.3c-0.3,0.4-0.7,0.7-1.2,0.9C35.3,17.3,34.5,17.7,33.7,17.9L33.7,17.9z
					 M30.5,14.6c0.2,0.2,0.5,0.4,0.8,0.6c0.4,0.3,0.8,0.5,1.2,0.7c0.4-0.1,0.8-0.1,1.3,0c0.4-0.2,0.8-0.4,1.2-0.7l0,0
					c0.3-0.2,0.5-0.3,0.7-0.6c0.5-1,0.8-2.1,0.9-3.1c0-0.3,0.2-0.7,0.5-0.9c0.3-0.4,0.4-0.9,0.4-1.4l-0.2-0.2L37.2,9
					c-0.2-0.2-0.3-0.6-0.3-0.9c0.1-0.4,0.3-0.7,0.6-0.9c0-0.1,0.1-0.3,0.1-0.4c0.2-1.5-0.8-3-2.3-3.4C33.5,2.7,32.7,3,32.5,3
					c-0.1,0.1-0.2,0.2-0.3,0.3c-0.1,0.4-0.5,0.7-1,0.7l0,0c-0.3,0-0.7-0.2-0.8-0.5c-2.1,1-2.2,2.3-2,3.3l0.2,0.2
					c0.2,0.2,0.3,0.5,0.4,0.8c0.2,0.4,0.1,0.8-0.2,1.1h-0.1c-0.1,0.1-0.1,0.1-0.2,0.2c0,0.5,0.1,1,0.4,1.4c0.3,0.2,0.5,0.5,0.5,0.8
					C29.6,12.5,29.9,13.6,30.5,14.6L30.5,14.6z"/>
				<path id="Shape_10_" class="st2" d="M38.3,8.8h-0.2c-0.5-0.1-0.8-0.5-0.8-0.9c-0.7,0-1.4,0.1-2.1,0.2c-1,0.2-2.1,0.3-3.1,0.2
					c-0.9-0.1-1.8-0.5-2.5-1.1c-0.4,0.2-0.7,0.4-0.8,0.5c0,0.4-0.2,0.7-0.5,0.9c-0.3,0.2-0.7,0.2-1,0c-0.3-0.2-0.5-0.5-0.5-0.9
					c0-0.6,0.2-1.2,0.7-1.6C28.3,5.4,29.3,5,30.3,5c0.5,0,0.9,0.5,0.9,1c0.3,0.2,0.7,0.3,1,0.3c0.9,0,1.8,0,2.7-0.2
					c1.7-0.3,3.1-0.5,4,0.3c0.4,0.4,0.6,1,0.4,1.6C39.2,8.5,38.8,8.8,38.3,8.8L38.3,8.8z"/>
				<rect id="Rectangle-path" x="5" y="33.9" class="st0" width="58" height="4"/>
				<path id="Shape_11_" class="st2" d="M63,38.9H5c-0.6,0-1-0.4-1-1v-4c0-0.6,0.4-1,1-1h58c0.6,0,1,0.4,1,1v4
					C64,38.5,63.6,38.9,63,38.9z M6,36.9h56v-2H6V36.9z"/>
				<rect id="Rectangle-path_1_" x="-2" y="15.9" class="st0" width="16" height="6"/>
				<rect id="Rectangle-path_2_" x="7" y="37.9" class="st0" width="54" height="22"/>
				<path id="Shape_12_" class="st2" d="M61,60.9H7c-0.6,0-1-0.4-1-1v-22c0-0.6,0.4-1,1-1h54c0.6,0,1,0.4,1,1v22
					C62,60.5,61.6,60.9,61,60.9z M8,58.9h52v-20H8V58.9z"/>
			</g>
		</g>
	</g>
</g>
</svg>
