<?xml version="1.0" encoding="utf-8"?>
<!-- Generator: Adobe Illustrator 21.1.0, SVG Export Plug-In . SVG Version: 6.00 Build 0)  -->
<svg version="1.1" id="Camada_1" xmlns="http://www.w3.org/2000/svg" xmlns:xlink="http://www.w3.org/1999/xlink" x="0px" y="0px"
	 viewBox="0 0 33 33" style="enable-background:new 0 0 33 33;" xml:space="preserve">
<style type="text/css">
	.st0{fill:#FFFFFF;}
	.st1{fill:#002A76;}
</style>
<g>
	<circle class="st0" cx="16.3" cy="16.3" r="15.3"/>
	<path class="st1" d="M12.4,22.7l-4.2-4.9c-0.2-0.3-0.2-0.7,0.1-1c0.3-0.2,0.7-0.2,1,0.1l3.6,4.2l11.1-10c0.2-0.3,0.7-0.4,1-0.1
		c0.3,0.2,0.3,0.6,0.2,0.9L13.5,22.6c-0.1,0.2-0.3,0.3-0.5,0.3C12.7,23,12.5,22.9,12.4,22.7L12.4,22.7z"/>
	<path class="st1" d="M0,16.1C0,7.2,7.2,0,16.1,0s16.1,7.2,16.1,16.1S25,32.2,16.1,32.2l0,0C7.2,32.2,0,25,0,16.1z M16.1,1.5
		C8,1.5,1.5,8,1.5,16.1S8,30.7,16.1,30.7s14.6-6.5,14.6-14.6S24.1,1.5,16.1,1.5z"/>
</g>
</svg>
