<svg xmlns="http://www.w3.org/2000/svg" width="91" height="84" viewBox="0 0 91 84">
    <g fill="none" fill-rule="nonzero">
        <path fill="#C5D9EF" d="M1.625 15.992V8.077c0-3.569 2.91-6.462 6.5-6.462h74.75c3.59 0 6.5 2.893 6.5 6.462v7.915"/>
        <path fill="#002A76" d="M89.375 17.608a1.62 1.62 0 0 1-1.625-1.616V8.077c0-2.677-2.183-4.846-4.875-4.846H8.125C5.433 3.23 3.25 5.4 3.25 8.077v7.915a1.62 1.62 0 0 1-1.625 1.616A1.62 1.62 0 0 1 0 15.992V8.077C0 3.617 3.638 0 8.125 0h74.75C87.362 0 91 3.616 91 8.077v7.915a1.62 1.62 0 0 1-1.625 1.616z"/>
        <path fill="#C5D9EF" d="M1.625 22.454v-7.916c0-3.568 2.91-6.461 6.5-6.461h74.75c3.59 0 6.5 2.893 6.5 6.461v7.916"/>
        <path fill="#002A76" d="M89.375 24.07a1.62 1.62 0 0 1-1.625-1.616v-7.916c0-2.676-2.183-4.846-4.875-4.846H8.125c-2.692 0-4.875 2.17-4.875 4.846v7.916a1.62 1.62 0 0 1-1.625 1.615A1.62 1.62 0 0 1 0 22.454v-7.916c0-4.46 3.638-8.076 8.125-8.076h74.75c4.487 0 8.125 3.616 8.125 8.076v7.916a1.62 1.62 0 0 1-1.625 1.615z"/>
        <path fill="#C5D9EF" d="M1.625 28.915V21c0-3.569 2.91-6.462 6.5-6.462h74.75c3.59 0 6.5 2.893 6.5 6.462v7.915"/>
        <path fill="#002A76" d="M89.375 30.53a1.62 1.62 0 0 1-1.625-1.615V21c0-2.676-2.183-4.846-4.875-4.846H8.125c-2.692 0-4.875 2.17-4.875 4.846v7.915a1.62 1.62 0 0 1-1.625 1.616A1.62 1.62 0 0 1 0 28.915V21c0-4.46 3.638-8.077 8.125-8.077h74.75C87.362 12.923 91 16.54 91 21v7.915a1.62 1.62 0 0 1-1.625 1.616z"/>
        <rect width="87.75" height="61.385" x="1.625" y="21" fill="#FFF" rx="4"/>
        <path fill="#002A76" d="M82.875 84H8.125C3.638 84 0 80.384 0 75.923V27.462C0 23 3.638 19.385 8.125 19.385h74.75C87.362 19.385 91 23 91 27.462v48.461C91 80.383 87.362 84 82.875 84zM8.125 22.615c-2.692 0-4.875 2.17-4.875 4.847v48.461c0 2.677 2.183 4.846 4.875 4.846h74.75c2.692 0 4.875-2.17 4.875-4.846V27.462c0-2.677-2.183-4.847-4.875-4.847H8.125z"/>
        <rect width="35.75" height="35.538" x="11.375" y="33.923" fill="#FFF" rx="2"/>
        <path fill="#002A76" d="M43.875 71.077h-29.25c-2.692 0-4.875-2.17-4.875-4.846V37.154c0-2.677 2.183-4.846 4.875-4.846h29.25c2.692 0 4.875 2.17 4.875 4.846V66.23c0 2.676-2.183 4.846-4.875 4.846zm-29.25-35.539A1.62 1.62 0 0 0 13 37.154V66.23a1.62 1.62 0 0 0 1.625 1.615h29.25a1.62 1.62 0 0 0 1.625-1.615V37.154a1.62 1.62 0 0 0-1.625-1.616h-29.25z"/>
        <path fill="#C5D9EF" d="M45.5 69.01v-.195a15.109 15.109 0 0 0-3.25-3.424 20.264 20.264 0 0 0-7.833-3.231.987.987 0 0 1-.828-1.018v-1.728c0-1.373 1.625-3.037 1.755-4.976a7.767 7.767 0 0 0 .877-3.23 1.61 1.61 0 0 0-.39-1.212c.13-.727.26-1.486.39-2.261.569-3.231-.536-5.428-3.25-6.462-1.007-.355-5.183-1.066-6.727-2.568-.569-.55-.179 2.503-.683 2.73-2.603.87-4.042 3.637-3.25 6.251.146.792.26 1.616.39 2.262a1.61 1.61 0 0 0-.39 1.211 7.75 7.75 0 0 0 .878 3.231c.097 1.938 1.755 3.505 1.755 4.975v1.729a.987.987 0 0 1-.829 1.018 21.976 21.976 0 0 0-7.832 3.23 7.304 7.304 0 0 0-3.25 3.425v.21c.479.296 1.028.463 1.592.485h29.25a3.265 3.265 0 0 0 1.625-.453z"/>
        <path fill="#002A76" d="M43.875 71.077h-29.25a4.897 4.897 0 0 1-2.405-.646 1.615 1.615 0 0 1-.813-1.212v-.21a1.606 1.606 0 0 1 0-.678 8.79 8.79 0 0 1 3.917-4.297 24.027 24.027 0 0 1 7.897-3.36V59.43a4.83 4.83 0 0 0-.601-1.454 8.818 8.818 0 0 1-1.089-3.053 9.035 9.035 0 0 1-.893-3.586 3.664 3.664 0 0 1 .308-1.615l-.097-.598-.179-1.034a6.594 6.594 0 0 1 3.494-7.705v-.501c0-1.082.113-2.213 1.251-2.65a1.91 1.91 0 0 1 1.869.404 14.286 14.286 0 0 0 4.875 1.858c.569.146 1.023.259 1.284.356 3.51 1.243 5.102 4.232 4.37 8.222l-.178 1.018-.097.63c.224.508.33 1.06.308 1.615a9.035 9.035 0 0 1-.877 3.586 9.156 9.156 0 0 1-1.138 3.23c-.26.434-.458.901-.585 1.39v1.244a21.89 21.89 0 0 1 8.044 3.457 16.743 16.743 0 0 1 3.608 3.828c.14.224.224.48.243.743v.194a1.613 1.613 0 0 1-.796 1.503 4.899 4.899 0 0 1-2.47.565zm-28.194-3.23h26.91c-.42-.42-.865-.813-1.332-1.18a18.88 18.88 0 0 0-7.134-2.908 2.62 2.62 0 0 1-2.177-2.665v-1.616a6.34 6.34 0 0 1 .99-2.94c.414-.666.69-1.407.813-2.18.01-.22.066-.433.163-.63a6.32 6.32 0 0 0 .715-2.472 1.237 1.237 0 0 0 0-.161 1.609 1.609 0 0 1-.358-1.341c0-.388.146-.792.212-1.196l.178-1.066c.585-3.23-1.023-4.167-2.275-4.604-.195 0-.552-.161-.991-.274a28.056 28.056 0 0 1-4.063-1.26 2.036 2.036 0 0 1-1.153 1.615 3.505 3.505 0 0 0-2.12 1.756 3.47 3.47 0 0 0-.188 2.735l.179 1.082c0 .404.13.792.211 1.18.09.477-.041.97-.357 1.34a1.237 1.237 0 0 0 0 .162 6.32 6.32 0 0 0 .715 2.471c.096.197.152.412.162.63.113.746.379 1.46.78 2.1.563.892.897 1.907.975 2.957v1.615a2.62 2.62 0 0 1-2.161 2.762 20.492 20.492 0 0 0-7.247 3.005c-.517.313-1 .676-1.447 1.082zM79.625 64.615h-26A1.62 1.62 0 0 1 52 63a1.62 1.62 0 0 1 1.625-1.615h26A1.62 1.62 0 0 1 81.25 63a1.62 1.62 0 0 1-1.625 1.615zM58.5 58.154h-4.875A1.62 1.62 0 0 1 52 56.538a1.62 1.62 0 0 1 1.625-1.615H58.5a1.62 1.62 0 0 1 1.625 1.615 1.62 1.62 0 0 1-1.625 1.616zM71.5 58.154H65a1.62 1.62 0 0 1-1.625-1.616A1.62 1.62 0 0 1 65 54.923h6.5a1.62 1.62 0 0 1 1.625 1.615 1.62 1.62 0 0 1-1.625 1.616zM79.625 45.23h-26A1.62 1.62 0 0 1 52 43.616 1.62 1.62 0 0 1 53.625 42h26a1.62 1.62 0 0 1 1.625 1.615 1.62 1.62 0 0 1-1.625 1.616zM68.25 38.77H53.625A1.62 1.62 0 0 1 52 37.153a1.62 1.62 0 0 1 1.625-1.616H68.25a1.62 1.62 0 0 1 1.625 1.616 1.62 1.62 0 0 1-1.625 1.615z"/>
    </g>
</svg>
