<svg xmlns="http://www.w3.org/2000/svg" width="33" height="34" viewBox="0 0 33 34">
    <g fill="none" fill-rule="nonzero">
        <path fill="#C5D9EF" d="M31.912 28.77V1.66H4.65v27.11z"/>
        <path fill="#002A76" d="M31.912 2.292H4.65A.647.647 0 0 1 4 1.646C4 1.289 4.29 1 4.65 1h27.262c.359 0 .65.29.65.646 0 .357-.291.646-.65.646zM27.93 7.5H13.65c-.36 0-.65-.336-.65-.75s.29-.75.65-.75h14.28c.358 0 .649.336.649.75s-.29.75-.65.75zM27.93 12.5H13.65c-.36 0-.65-.336-.65-.75s.29-.75.65-.75h14.28c.358 0 .649.336.649.75s-.29.75-.65.75zM27.93 17.5H13.65c-.36 0-.65-.336-.65-.75s.29-.75.65-.75h14.28c.358 0 .649.336.649.75s-.29.75-.65.75zM27.93 23H13.65c-.36 0-.65-.336-.65-.75s.29-.75.65-.75h14.28c.358 0 .649.336.649.75s-.29.75-.65.75z"/>
        <path fill="#002A76" d="M31.266 29.066V1.33c0-.194.29-.351.646-.351.357 0 .646.157.646.351v27.736c0 .194-.289.351-.646.351-.356 0-.646-.157-.646-.351zM11.246 8.875H8.649A.647.647 0 0 1 8 8.229V5.646C8 5.289 8.29 5 8.65 5h2.596c.358 0 .649.29.649.646v2.583c0 .357-.29.646-.65.646zM9.298 7.583h1.298V6.292H9.298v1.291zM11.246 13.875H8.649A.647.647 0 0 1 8 13.229v-2.583c0-.357.29-.646.65-.646h2.596c.358 0 .649.29.649.646v2.583c0 .357-.29.646-.65.646zm-1.948-1.292h1.298v-1.291H9.298v1.291zM11.246 18.875H8.649A.647.647 0 0 1 8 18.229v-2.583c0-.357.29-.646.65-.646h2.596c.358 0 .649.29.649.646v2.583c0 .357-.29.646-.65.646zm-1.948-1.292h1.298v-1.291H9.298v1.291zM11.14 24.25H8.544a.647.647 0 0 1-.65-.646v-2.583c0-.357.291-.646.65-.646h2.596c.359 0 .65.29.65.646v2.583c0 .357-.291.646-.65.646zm-1.947-1.292h1.298v-1.291H9.193v1.291z"/>
        <path fill="#002A76" d="M31.864 29.417H4.65A.647.647 0 0 1 4 28.77V1.566c0-.055 1.298-.412 1.298-.412v26.971h26.566c.359 0 .65.29.65.646 0 .357-.291.646-.65.646z"/>
        <g>
            <path fill="#FFF" d="M27.912 32.77V5.66H.65v27.11z"/>
            <path fill="#002A76" d="M27.912 6.292H.65A.647.647 0 0 1 0 5.646C0 5.289.29 5 .65 5h27.262c.359 0 .65.29.65.646 0 .357-.291.646-.65.646zM23.93 11.5H9.65c-.36 0-.65-.336-.65-.75s.29-.75.65-.75h14.28c.358 0 .649.336.649.75s-.29.75-.65.75zM23.93 16.5H9.65c-.36 0-.65-.336-.65-.75s.29-.75.65-.75h14.28c.358 0 .649.336.649.75s-.29.75-.65.75zM23.93 21.5H9.65c-.36 0-.65-.336-.65-.75s.29-.75.65-.75h14.28c.358 0 .649.336.649.75s-.29.75-.65.75zM23.93 27H9.65c-.36 0-.65-.336-.65-.75s.29-.75.65-.75h14.28c.358 0 .649.336.649.75s-.29.75-.65.75z"/>
            <path fill="#002A76" d="M27.266 33.066V5.33c0-.194.29-.351.646-.351.357 0 .646.157.646.351v27.736c0 .194-.289.351-.646.351-.356 0-.646-.157-.646-.351zM7.246 12.875H4.649A.647.647 0 0 1 4 12.229V9.646C4 9.289 4.29 9 4.65 9h2.596c.358 0 .649.29.649.646v2.583c0 .357-.29.646-.65.646zm-1.948-1.292h1.298v-1.291H5.298v1.291zM7.246 17.875H4.649A.647.647 0 0 1 4 17.229v-2.583c0-.357.29-.646.65-.646h2.596c.358 0 .649.29.649.646v2.583c0 .357-.29.646-.65.646zm-1.948-1.292h1.298v-1.291H5.298v1.291zM7.246 22.875H4.649A.647.647 0 0 1 4 22.229v-2.583c0-.357.29-.646.65-.646h2.596c.358 0 .649.29.649.646v2.583c0 .357-.29.646-.65.646zm-1.948-1.292h1.298v-1.291H5.298v1.291zM7.14 28.25H4.544a.647.647 0 0 1-.65-.646v-2.583c0-.357.291-.646.65-.646H7.14c.359 0 .65.29.65.646v2.583c0 .357-.291.646-.65.646zm-1.947-1.292h1.298v-1.291H5.193v1.291z"/>
            <path fill="#002A76" d="M27.864 33.417H.65A.647.647 0 0 1 0 32.77V5.566c0-.055 1.298-.412 1.298-.412v26.971h26.566c.359 0 .65.29.65.646 0 .357-.291.646-.65.646z"/>
        </g>
    </g>
</svg>
