<svg xmlns="http://www.w3.org/2000/svg" width="37" height="32" viewBox="0 0 37 32">
    <g fill="none" fill-rule="nonzero">
        <path fill="#FFF" d="M27.912 28.77V1.66H.65v27.11z"/>
        <path fill="#002A76" d="M27.912 2.292H.65A.647.647 0 0 1 0 1.646C0 1.289.29 1 .65 1h27.262c.359 0 .65.29.65.646 0 .357-.291.646-.65.646zM24.018 7.458H9.737a.647.647 0 0 1-.65-.646c0-.356.291-.645.65-.645h14.28c.359 0 .65.289.65.646 0 .356-.291.645-.65.645z"/>
        <path fill="#002A76" d="M27.266 9.066V1.33c0-.194.29-.351.646-.351.357 0 .646.157.646.351v7.736c0 .194-.289.351-.646.351-.356 0-.646-.157-.646-.351zM7.14 8.75H4.544a.647.647 0 0 1-.65-.646V5.521c0-.357.291-.646.65-.646H7.14c.359 0 .65.29.65.646v2.583c0 .357-.291.646-.65.646zM5.193 7.458h1.298V6.167H5.193v1.291zM13.664 12.625H9.737a.647.647 0 0 1-.65-.646c0-.357.291-.646.65-.646h3.927c.359 0 .65.29.65.646 0 .357-.291.646-.65.646zM7.14 13.917H4.544a.647.647 0 0 1-.65-.646v-2.584c0-.356.291-.645.65-.645H7.14c.359 0 .65.289.65.646v2.583c0 .357-.291.646-.65.646zm-1.947-1.292h1.298v-1.292H5.193v1.292zM12.333 17.792H9.737a.647.647 0 0 1-.65-.646c0-.357.291-.646.65-.646h2.596c.359 0 .65.29.65.646 0 .357-.291.646-.65.646zM7.14 19.083H4.544a.647.647 0 0 1-.65-.645v-2.584c0-.357.291-.646.65-.646H7.14c.359 0 .65.29.65.646v2.584c0 .356-.291.645-.65.645zm-1.947-1.291h1.298V16.5H5.193v1.292zM14.683 22.958H9.737a.647.647 0 0 1-.65-.645c0-.357.291-.646.65-.646h4.946c.359 0 .65.289.65.645 0 .357-.291.646-.65.646zM7.14 24.25H4.544a.647.647 0 0 1-.65-.646v-2.583c0-.357.291-.646.65-.646H7.14c.359 0 .65.29.65.646v2.583c0 .357-.291.646-.65.646zm-1.947-1.292h1.298v-1.291H5.193v1.291z"/>
        <path fill="#0A94E3" d="M33.69 32a2.655 2.655 0 0 1-1.883-.775l-3.765-3.746a2.64 2.64 0 0 1-.689-2.558 2.655 2.655 0 0 1 1.883-1.873 2.671 2.671 0 0 1 2.571.685l3.765 3.746c.762.757.99 1.897.577 2.887A2.662 2.662 0 0 1 33.69 32zm-.961-1.686a1.382 1.382 0 0 0 2.304-.614 1.365 1.365 0 0 0-.357-1.323l-3.765-3.746a1.4 1.4 0 0 0-1.947 0 1.353 1.353 0 0 0 0 1.938l3.765 3.745z"/>
        <path fill="#C5D9EF" d="M27.386 21.705a8.45 8.45 0 0 1-1.382 1.376l1.993 1.983c.041-.149.1-.292.175-.427v-.051c.163-.29.404-.529.694-.691h.052c.136-.075.28-.133.429-.175l-1.96-2.015z"/>
        <path fill="#002A76" d="M27.997 25.71a.65.65 0 0 1-.461-.188l-1.993-1.982a.644.644 0 0 1 .058-.963 7.815 7.815 0 0 0 1.299-1.291.65.65 0 0 1 .967-.059l1.993 2.003a.644.644 0 0 1-.286 1.078c-.1.027-.195.066-.286.116a1.363 1.363 0 0 0-.305.22 1.292 1.292 0 0 0-.2.271c-.059.102-.104.21-.137.323a.648.648 0 0 1-.65.472zm-1.039-2.584l.87.866c.133-.177.29-.333.467-.465l-.87-.866c-.151.155-.307.306-.467.452v.013zM26.614 29.417H.649A.647.647 0 0 1 0 28.77V1.566c0-.055 1.298-.412 1.298-.412v26.971h25.316c.359 0 .65.29.65.646 0 .357-.291.646-.65.646z"/>
        <ellipse cx="20.772" cy="16.5" fill="#FFF" rx="8.439" ry="8.396"/>
        <path fill="#002A76" d="M20.772 25.542c-5.02 0-9.088-4.048-9.088-9.042s4.069-9.042 9.088-9.042c5.019 0 9.088 4.048 9.088 9.042a9.019 9.019 0 0 1-2.662 6.393 9.111 9.111 0 0 1-6.426 2.649zm0-16.792c-4.302 0-7.79 3.47-7.79 7.75 0 4.28 3.488 7.75 7.79 7.75s7.79-3.47 7.79-7.75a7.73 7.73 0 0 0-2.282-5.48 7.81 7.81 0 0 0-5.508-2.27z"/>
        <path fill="#C5D9EF" d="M32.268 30.766l-3.765-3.745a1.995 1.995 0 0 1 0-2.83 2.02 2.02 0 0 1 2.843 0l3.765 3.747a1.995 1.995 0 0 1 0 2.828 2.02 2.02 0 0 1-2.843 0z"/>
        <path fill="#002A76" d="M33.69 32a2.655 2.655 0 0 1-1.883-.775l-3.765-3.746a2.64 2.64 0 0 1-.689-2.558 2.655 2.655 0 0 1 1.883-1.873 2.671 2.671 0 0 1 2.571.685l3.765 3.746c.762.757.99 1.897.577 2.887A2.662 2.662 0 0 1 33.69 32zm-.961-1.686a1.382 1.382 0 0 0 2.304-.614 1.365 1.365 0 0 0-.357-1.323l-3.765-3.746a1.4 1.4 0 0 0-1.947 0 1.353 1.353 0 0 0 0 1.938l3.765 3.745z"/>
        <ellipse cx="20.772" cy="16.5" fill="#C5D9EF" rx="6.491" ry="6.458"/>
        <path fill="#002A76" d="M20.772 23.604c-3.944 0-7.14-3.18-7.14-7.104s3.196-7.104 7.14-7.104c3.943 0 7.14 3.18 7.14 7.104a7.086 7.086 0 0 1-2.091 5.023 7.159 7.159 0 0 1-5.05 2.081zm0-12.916c-3.227 0-5.842 2.602-5.842 5.812 0 3.21 2.615 5.813 5.842 5.813 3.226 0 5.842-2.603 5.842-5.813 0-3.21-2.616-5.813-5.842-5.813z"/>
        <path fill="#002A76" d="M19.909 20.052a.65.65 0 0 1-.448-.18l-2.383-2.261a.644.644 0 0 1-.022-.914.652.652 0 0 1 .918-.023l1.824 1.764 3.032-4.521a.65.65 0 0 1 1.146.054.643.643 0 0 1-.069.663l-3.46 5.166a.65.65 0 0 1-.467.284l-.071-.032z"/>
    </g>
</svg>
